INDEX VERSION 1.131+C:\Users\User\Desktop\MiniProject-2\.metadata\.plugins\org.eclipse.jdt.core
3489892453.index
4123667015.index
2563958517.index
54696567.index
1118744681.index
3276708095.index
473575831.index
933627252.index
460709753.index
4000604366.index
1671134261.index
3298066810.index
2400389340.index
1247673408.index
849766128.index
1560989483.index
952000352.index
2474960638.index
2936796674.index
189075057.index
3919788864.index
1692036372.index
1812301.index
3187184592.index
1622331885.index
1199068474.index
94259750.index
3287308929.index
4053686537.index
3094339620.index
2840863611.index
1615293254.index
1734413585.index
2743791594.index
3845922431.index
291144064.index
1316854890.index
563228103.index
3215479210.index
908814628.index
2194462920.index
1518960969.index
1163624058.index
3403573512.index
2665525401.index
1585408704.index
1865797976.index
1697419652.index
2206769878.index
340773724.index
730271178.index
3252157448.index
2084300444.index
405944496.index
223997129.index
3047812423.index
2548277972.index
31140576.index
1381455627.index
756739078.index
411480104.index
2896012419.index
1397135929.index
779884588.index
3131267545.index
2527147028.index
2331732166.index
3993779873.index
363232096.index
1158050874.index
2368440051.index
2302438904.index
3832301697.index
1129797327.index
3032066844.index
3572859143.index
2736929731.index
2553140945.index
3475658460.index
1636214450.index
1921354392.index
405858221.index
2699674872.index
2950941907.index
3270557832.index
2189043561.index
2264018288.index
1950233377.index
3527327335.index
1197257681.index
2105490194.index
2318980830.index
14960485.index
4102611905.index
3450049096.index
305360062.index
818783910.index
3361065536.index
1890245030.index
3490512996.index
2228393179.index
2994481748.index
1682135166.index
67475996.index
2683857604.index
329764351.index
