INDEX VERSION 1.131+C:\Users\User\Desktop\sandhya_52009003_repository_hcl\week7_Assignment_hcl\.metadata\.plugins\org.eclipse.jdt.core
1364821477.index
449494879.index
2140479094.index
1091888263.index
587602595.index
2584903184.index
3968654611.index
3255364838.index
1639937529.index
1865797976.index
1938044810.index
269491198.index
2443957358.index
1481569561.index
1248098764.index
1987193270.index
607510522.index
3867918331.index
1508092695.index
2331732166.index
3345601647.index
2473671586.index
2497906715.index
1150981317.index
2686468089.index
942673394.index
3102586089.index
1466595175.index
601964564.index
506040201.index
1872137788.index
3999530932.index
3906614461.index
3807850421.index
3362811028.index
1145973095.index
