what,kind,bundleId,bundleVersion,description,time
activated,perspective,org.eclipse.jdt.ui,,"org.eclipse.jdt.ui.JavaPerspective",1637760105376
started,bundle,org.eclipse.osgi,3.6.1.R36x_v20100806,"org.eclipse.osgi",1637760105379
started,bundle,org.eclipse.equinox.simpleconfigurator,1.0.200.v20100503,"org.eclipse.equinox.simpleconfigurator",1637760105383
started,bundle,com.ibm.icu,4.2.1.v20100412,"com.ibm.icu",1637760105385
started,bundle,org.eclipse.core.contenttype,3.4.100.v20100505-1235,"org.eclipse.core.contenttype",1637760105386
started,bundle,org.eclipse.core.databinding.observable,1.3.0.I20100601-0800,"org.eclipse.core.databinding.observable",1637760105390
started,bundle,org.eclipse.core.expressions,3.4.200.v20100505,"org.eclipse.core.expressions",1637760105392
started,bundle,org.eclipse.core.filebuffers,3.5.100.v20100520-0800,"org.eclipse.core.filebuffers",1637760105394
started,bundle,org.eclipse.core.filesystem,1.3.1.R36x_v20100727-0745,"org.eclipse.core.filesystem",1637760105397
started,bundle,org.eclipse.core.jobs,3.5.1.R36x_v20100824,"org.eclipse.core.jobs",1637760105399
started,bundle,org.eclipse.core.net,1.2.100.I20100511-0800,"org.eclipse.core.net",1637760105407
started,bundle,org.eclipse.core.resources,3.6.0.R36x_v20100825-0600,"org.eclipse.core.resources",1637760105409
started,bundle,org.eclipse.core.runtime,3.6.0.v20100505,"org.eclipse.core.runtime",1637760105410
started,bundle,org.eclipse.core.runtime.compatibility,3.2.100.v20100505,"org.eclipse.core.runtime.compatibility",1637760105413
started,bundle,org.eclipse.core.runtime.compatibility.auth,3.2.200.v20100517,"org.eclipse.core.runtime.compatibility.auth",1637760105416
started,bundle,org.eclipse.epp.usagedata.gathering,1.3.0.R201005261100,"org.eclipse.epp.usagedata.gathering",1637760105417
started,bundle,org.eclipse.epp.usagedata.recording,1.3.0.R201005261100,"org.eclipse.epp.usagedata.recording",1637760105419
started,bundle,org.eclipse.equinox.app,1.3.1.R36x_v20100803,"org.eclipse.equinox.app",1637760105421
started,bundle,org.eclipse.equinox.common,3.6.0.v20100503,"org.eclipse.equinox.common",1637760105427
started,bundle,org.eclipse.equinox.ds,1.2.1.R36x_v20100803,"org.eclipse.equinox.ds",1637760105429
started,bundle,org.eclipse.equinox.event,1.2.0.v20100503,"org.eclipse.equinox.event",1637760105431
started,bundle,org.eclipse.equinox.p2.core,2.0.2.R36x_v20100804,"org.eclipse.equinox.p2.core",1637760105433
started,bundle,org.eclipse.equinox.p2.directorywatcher,1.0.202.R36x_v20100727,"org.eclipse.equinox.p2.directorywatcher",1637760105435
started,bundle,org.eclipse.equinox.p2.engine,2.0.0.v20100606,"org.eclipse.equinox.p2.engine",1637760105438
started,bundle,org.eclipse.equinox.p2.metadata,2.0.0.v20100601,"org.eclipse.equinox.p2.metadata",1637760105440
started,bundle,org.eclipse.equinox.p2.metadata.repository,1.1.0.v20100513,"org.eclipse.equinox.p2.metadata.repository",1637760105442
started,bundle,org.eclipse.equinox.p2.operations,2.0.0.v20100510,"org.eclipse.equinox.p2.operations",1637760105443
started,bundle,org.eclipse.equinox.p2.reconciler.dropins,1.1.0.v20100525,"org.eclipse.equinox.p2.reconciler.dropins",1637760105445
started,bundle,org.eclipse.equinox.p2.repository,2.0.1.R36x_v20100823,"org.eclipse.equinox.p2.repository",1637760105447
started,bundle,org.eclipse.equinox.p2.ui.sdk.scheduler,1.0.0.v20100507-1815,"org.eclipse.equinox.p2.ui.sdk.scheduler",1637760105448
started,bundle,org.eclipse.equinox.p2.updatechecker,1.1.101.R36x_v20100823,"org.eclipse.equinox.p2.updatechecker",1637760105449
started,bundle,org.eclipse.equinox.preferences,3.3.0.v20100503,"org.eclipse.equinox.preferences",1637760105451
started,bundle,org.eclipse.equinox.registry,3.5.0.v20100503,"org.eclipse.equinox.registry",1637760105452
started,bundle,org.eclipse.equinox.security,1.0.200.v20100503,"org.eclipse.equinox.security",1637760105454
started,bundle,org.eclipse.equinox.util,1.0.200.v20100503,"org.eclipse.equinox.util",1637760105456
started,bundle,org.eclipse.help,3.5.0.v20100524,"org.eclipse.help",1637760105457
started,bundle,org.eclipse.jdt.core,3.6.1.v_A68_R36x,"org.eclipse.jdt.core",1637760105458
started,bundle,org.eclipse.jdt.core.manipulation,1.3.0.v20100520-0800,"org.eclipse.jdt.core.manipulation",1637760105460
started,bundle,org.eclipse.jdt.ui,3.6.1.r361_v20100825-0800,"org.eclipse.jdt.ui",1637760105467
started,bundle,org.eclipse.jface,3.6.1.M20100825-0800,"org.eclipse.jface",1637760105469
started,bundle,org.eclipse.jsch.core,1.1.200.I20100505-1245,"org.eclipse.jsch.core",1637760105470
started,bundle,org.eclipse.mylyn.bugzilla.core,3.4.2.v20100902-0100-e3x,"org.eclipse.mylyn.bugzilla.core",1637760105471
started,bundle,org.eclipse.mylyn.bugzilla.ui,3.4.2.v20100909-0100-e3x,"org.eclipse.mylyn.bugzilla.ui",1637760105473
started,bundle,org.eclipse.mylyn.commons.net,3.4.1.v20100625-2100-e3x,"org.eclipse.mylyn.commons.net",1637760105473
started,bundle,org.eclipse.mylyn.commons.ui,3.4.0.v20100608-0100-e3x,"org.eclipse.mylyn.commons.ui",1637760105474
started,bundle,org.eclipse.mylyn.context.core,3.4.1.v20100909-0100-e3x,"org.eclipse.mylyn.context.core",1637760105476
started,bundle,org.eclipse.mylyn.context.ui,3.4.1.v20100909-0100-e3x,"org.eclipse.mylyn.context.ui",1637760105481
started,bundle,org.eclipse.mylyn.monitor.ui,3.4.0.v20100608-0100-e3x,"org.eclipse.mylyn.monitor.ui",1637760105484
started,bundle,org.eclipse.mylyn.tasks.ui,3.4.2.v20100902-0100-e3x,"org.eclipse.mylyn.tasks.ui",1637760105486
started,bundle,org.eclipse.mylyn.team.ui,3.4.2.v20100909-0100-e3x,"org.eclipse.mylyn.team.ui",1637760105489
started,bundle,org.eclipse.search,3.6.0.v20100520-0800,"org.eclipse.search",1637760105491
started,bundle,org.eclipse.team.core,3.5.100.R36x_v20100825-0800,"org.eclipse.team.core",1637760105493
started,bundle,org.eclipse.team.cvs.core,3.3.300.I20100526-0800,"org.eclipse.team.cvs.core",1637760105495
started,bundle,org.eclipse.team.cvs.ui,3.3.301.R36x_v20100825-0800,"org.eclipse.team.cvs.ui",1637760105498
started,bundle,org.eclipse.team.ui,3.5.101.R36x_v20100825-0800,"org.eclipse.team.ui",1637760105501
started,bundle,org.eclipse.ui,3.6.1.M20100826-1330,"org.eclipse.ui",1637760105508
started,bundle,org.eclipse.ui.console,3.5.0.v20100526,"org.eclipse.ui.console",1637760105510
started,bundle,org.eclipse.ui.editors,3.6.1.r361_v20100825-0800,"org.eclipse.ui.editors",1637760105512
started,bundle,org.eclipse.ui.forms,3.5.2.r36_v20100702,"org.eclipse.ui.forms",1637760105515
started,bundle,org.eclipse.ui.ide,3.6.1.M20100825-0800,"org.eclipse.ui.ide",1637760105518
started,bundle,org.eclipse.ui.intro,3.4.0.v20100427,"org.eclipse.ui.intro",1637760105520
started,bundle,org.eclipse.ui.intro.universal,3.2.402.r36_v20100702,"org.eclipse.ui.intro.universal",1637760105520
started,bundle,org.eclipse.ui.net,1.2.100.I20100505-1245,"org.eclipse.ui.net",1637760105521
started,bundle,org.eclipse.ui.views,3.5.0.I20100527-0800,"org.eclipse.ui.views",1637760105523
started,bundle,org.eclipse.ui.workbench,3.6.1.M20100826-1330,"org.eclipse.ui.workbench",1637760105529
started,bundle,org.eclipse.ui.workbench.texteditor,3.6.1.r361_v20100714-0800,"org.eclipse.ui.workbench.texteditor",1637760105531
started,bundle,org.eclipse.update.configurator,3.3.100.v20100512,"org.eclipse.update.configurator",1637760105533
started,bundle,org.eclipse.update.core,3.2.402.R36x_v20100629,"org.eclipse.update.core",1637760105539
started,bundle,org.eclipse.update.scheduler,3.2.300.v20100512,"org.eclipse.update.scheduler",1637760105541
os,sysinfo,,,"win32",1637760105547
arch,sysinfo,,,"x86_64",1637760105548
ws,sysinfo,,,"win32",1637760105548
locale,sysinfo,,,"en_US",1637760105548
processors,sysinfo,,,"4",1637760105548
java.runtime.name,sysinfo,,,"Java(TM) SE Runtime Environment",1637760105548
java.runtime.version,sysinfo,,,"1.8.0_251-b08",1637760105548
java.specification.name,sysinfo,,,"Java Platform API Specification",1637760105548
java.specification.vendor,sysinfo,,,"Oracle Corporation",1637760105548
java.specification.version,sysinfo,,,"1.8",1637760105548
java.vendor,sysinfo,,,"Oracle Corporation",1637760105548
java.version,sysinfo,,,"1.8.0_251",1637760105548
java.vm.info,sysinfo,,,"mixed mode",1637760105548
java.vm.name,sysinfo,,,"Java HotSpot(TM) 64-Bit Server VM",1637760105548
java.vm.specification.name,sysinfo,,,"Java Virtual Machine Specification",1637760105548
java.vm.specification.vendor,sysinfo,,,"Oracle Corporation",1637760105548
java.vm.specification.version,sysinfo,,,"1.8",1637760105548
java.vm.vendor,sysinfo,,,"Oracle Corporation",1637760105548
java.vm.version,sysinfo,,,"25.251-b08",1637760105548
activated,view,org.eclipse.jdt.ui,3.6.1.r361_v20100825-0800,"org.eclipse.jdt.ui.PackageExplorer",1637760105935
activated,view,org.eclipse.jdt.ui,3.6.1.r361_v20100825-0800,"org.eclipse.jdt.ui.PackageExplorer",1637760106088
closed,view,org.eclipse.ui,3.6.1.M20100826-1330,"org.eclipse.ui.internal.introview",1637760106200
started,bundle,org.eclipse.debug.core,3.6.0.v20100519,"org.eclipse.debug.core",1637760109830
started,bundle,org.eclipse.jdt.launching,3.5.100.v20100526,"org.eclipse.jdt.launching",1637760109883
deactivated,workbench,org.eclipse.ui.workbench,3.6.1.M20100826-1330,"",1637760112077
started,bundle,org.eclipse.jdt.apt.core,3.3.401.R36_v20100727-0110,"org.eclipse.jdt.apt.core",1637760129829
started,bundle,org.eclipse.jdt.apt.pluggable.core,1.0.301.R36_v20100727-0110,"org.eclipse.jdt.apt.pluggable.core",1637760129842
activated,workbench,org.eclipse.ui.workbench,3.6.1.M20100826-1330,"",1637760130037
started,bundle,org.eclipse.compare,3.5.100.I20100526-0800,"org.eclipse.compare",1637760131643
deactivated,workbench,org.eclipse.ui.workbench,3.6.1.M20100826-1330,"",1637760134422
started,bundle,org.eclipse.ltk.core.refactoring,3.5.100.v20100526-0800,"org.eclipse.ltk.core.refactoring",1637760139093
started,bundle,org.eclipse.ltk.ui.refactoring,3.5.0.v20100526-0800,"org.eclipse.ltk.ui.refactoring",1637760139117
started,bundle,org.eclipse.jdt.debug,3.6.1.v20100715_r361,"org.eclipse.jdt.debug",1637760140498
started,bundle,org.eclipse.debug.ui,3.6.1.v20100901_r361,"org.eclipse.debug.ui",1637760140657
started,bundle,org.eclipse.jdt.debug.ui,3.5.0.v20100602-0830,"org.eclipse.jdt.debug.ui",1637760140860
activated,workbench,org.eclipse.ui.workbench,3.6.1.M20100826-1330,"",1637760147243
executed,command,org.eclipse.ui,3.6.1.M20100826-1330,"org.eclipse.ui.file.properties",1637760147358
deactivated,workbench,org.eclipse.ui.workbench,3.6.1.M20100826-1330,"",1637760153318
activated,workbench,org.eclipse.ui.workbench,3.6.1.M20100826-1330,"",1637760183518
deactivated,workbench,org.eclipse.ui.workbench,3.6.1.M20100826-1330,"",1637760189884
started,bundle,org.eclipse.mylyn.ide.ui,3.4.0.v20100608-0100-e3x,"org.eclipse.mylyn.ide.ui",1637760193673
activated,workbench,org.eclipse.ui.workbench,3.6.1.M20100826-1330,"",1637760196003
started,bundle,org.eclipse.compare.core,3.5.100.I20100526-0800,"org.eclipse.compare.core",1637760198030
opened,editor,org.eclipse.jdt.ui,3.6.1.r361_v20100825-0800,"org.eclipse.jdt.ui.CompilationUnitEditor",1637760198235
activated,editor,org.eclipse.jdt.ui,3.6.1.r361_v20100825-0800,"org.eclipse.jdt.ui.CompilationUnitEditor",1637760198732
started,bundle,org.eclipse.core.variables,3.2.400.v20100505,"org.eclipse.core.variables",1637760199139
activated,view,org.eclipse.jdt.ui,3.6.1.r361_v20100825-0800,"org.eclipse.jdt.ui.PackageExplorer",1637760200686
deactivated,workbench,org.eclipse.ui.workbench,3.6.1.M20100826-1330,"",1637760204861
activated,workbench,org.eclipse.ui.workbench,3.6.1.M20100826-1330,"",1637760215013
opened,editor,org.eclipse.jdt.ui,3.6.1.r361_v20100825-0800,"org.eclipse.jdt.ui.CompilationUnitEditor",1637760215513
activated,editor,org.eclipse.jdt.ui,3.6.1.r361_v20100825-0800,"org.eclipse.jdt.ui.CompilationUnitEditor",1637760215751
activated,view,org.eclipse.jdt.ui,3.6.1.r361_v20100825-0800,"org.eclipse.jdt.ui.PackageExplorer",1637760217419
deactivated,workbench,org.eclipse.ui.workbench,3.6.1.M20100826-1330,"",1637760220732
activated,workbench,org.eclipse.ui.workbench,3.6.1.M20100826-1330,"",1637760225962
opened,editor,org.eclipse.jdt.ui,3.6.1.r361_v20100825-0800,"org.eclipse.jdt.ui.CompilationUnitEditor",1637760226496
activated,editor,org.eclipse.jdt.ui,3.6.1.r361_v20100825-0800,"org.eclipse.jdt.ui.CompilationUnitEditor",1637760226698
activated,editor,org.eclipse.jdt.ui,3.6.1.r361_v20100825-0800,"org.eclipse.jdt.ui.CompilationUnitEditor",1637760228798
deactivated,workbench,org.eclipse.ui.workbench,3.6.1.M20100826-1330,"",1637760235110
activated,workbench,org.eclipse.ui.workbench,3.6.1.M20100826-1330,"",1637760268486
executed,command,org.eclipse.ui,3.6.1.M20100826-1330,"org.eclipse.ui.edit.paste",1637760270960
executed,command,org.eclipse.ui,3.6.1.M20100826-1330,"org.eclipse.ui.file.save",1637760286213
activated,editor,org.eclipse.jdt.ui,3.6.1.r361_v20100825-0800,"org.eclipse.jdt.ui.CompilationUnitEditor",1637760292899
deactivated,workbench,org.eclipse.ui.workbench,3.6.1.M20100826-1330,"",1637760294875
activated,workbench,org.eclipse.ui.workbench,3.6.1.M20100826-1330,"",1637760336099
executed,command,org.eclipse.ui,3.6.1.M20100826-1330,"org.eclipse.ui.edit.paste",1637760339753
started,bundle,org.eclipse.jdt.junit,3.6.1.r361_v20100825-0800,"org.eclipse.jdt.junit",1637760341347
deactivated,workbench,org.eclipse.ui.workbench,3.6.1.M20100826-1330,"",1637760348533
activated,workbench,org.eclipse.ui.workbench,3.6.1.M20100826-1330,"",1637760358554
executed,command,org.eclipse.ui,3.6.1.M20100826-1330,"org.eclipse.ui.edit.paste",1637760361385
executed,command,org.eclipse.ui,3.6.1.M20100826-1330,"org.eclipse.ui.file.save",1637760444993
executed,command,,,"AUTOGEN:::org.eclipse.jdt.internal.ui.CompilationUnitEditor.ruler.actions/org.eclipse.jdt.internal.ui.javaeditor.JavaSelectRulerAction",1637760456847
activated,editor,org.eclipse.jdt.ui,3.6.1.r361_v20100825-0800,"org.eclipse.jdt.ui.CompilationUnitEditor",1637760460994
deactivated,workbench,org.eclipse.ui.workbench,3.6.1.M20100826-1330,"",1637760481665
activated,workbench,org.eclipse.ui.workbench,3.6.1.M20100826-1330,"",1637760505141
executed,command,org.eclipse.ui,3.6.1.M20100826-1330,"org.eclipse.ui.edit.paste",1637760509670
deactivated,workbench,org.eclipse.ui.workbench,3.6.1.M20100826-1330,"",1637760521922
activated,workbench,org.eclipse.ui.workbench,3.6.1.M20100826-1330,"",1637760529770
executed,command,org.eclipse.ui,3.6.1.M20100826-1330,"org.eclipse.ui.edit.paste",1637760533221
executed,command,org.eclipse.ui,3.6.1.M20100826-1330,"org.eclipse.ui.file.save",1637760554772
activated,editor,org.eclipse.jdt.ui,3.6.1.r361_v20100825-0800,"org.eclipse.jdt.ui.CompilationUnitEditor",1637760558841
activated,editor,org.eclipse.jdt.ui,3.6.1.r361_v20100825-0800,"org.eclipse.jdt.ui.CompilationUnitEditor",1637760562920
deactivated,workbench,org.eclipse.ui.workbench,3.6.1.M20100826-1330,"",1637760569735
activated,workbench,org.eclipse.ui.workbench,3.6.1.M20100826-1330,"",1637760785899
activated,editor,org.eclipse.jdt.ui,3.6.1.r361_v20100825-0800,"org.eclipse.jdt.ui.CompilationUnitEditor",1637760788573
deactivated,workbench,org.eclipse.ui.workbench,3.6.1.M20100826-1330,"",1637760808520
activated,workbench,org.eclipse.ui.workbench,3.6.1.M20100826-1330,"",1637760874280
deactivated,workbench,org.eclipse.ui.workbench,3.6.1.M20100826-1330,"",1637760887242
activated,workbench,org.eclipse.ui.workbench,3.6.1.M20100826-1330,"",1637761122345
activated,view,org.eclipse.jdt.ui,3.6.1.r361_v20100825-0800,"org.eclipse.jdt.ui.PackageExplorer",1637761129265
deactivated,workbench,org.eclipse.ui.workbench,3.6.1.M20100826-1330,"",1637761132877
executed,command,org.eclipse.ui,3.6.1.M20100826-1330,"org.eclipse.ui.edit.paste",1637761194487
executed,command,org.eclipse.ui,3.6.1.M20100826-1330,"org.eclipse.ui.edit.paste",1637761225234
activated,workbench,org.eclipse.ui.workbench,3.6.1.M20100826-1330,"",1637761244583
opened,editor,org.eclipse.jdt.ui,3.6.1.r361_v20100825-0800,"org.eclipse.jdt.ui.CompilationUnitEditor",1637761245052
activated,editor,org.eclipse.jdt.ui,3.6.1.r361_v20100825-0800,"org.eclipse.jdt.ui.CompilationUnitEditor",1637761245227
deactivated,workbench,org.eclipse.ui.workbench,3.6.1.M20100826-1330,"",1637761259653
activated,workbench,org.eclipse.ui.workbench,3.6.1.M20100826-1330,"",1637761271674
executed,command,org.eclipse.ui,3.6.1.M20100826-1330,"org.eclipse.ui.edit.paste",1637761278923
executed,command,org.eclipse.ui,3.6.1.M20100826-1330,"org.eclipse.ui.file.save",1637761300766
deactivated,workbench,org.eclipse.ui.workbench,3.6.1.M20100826-1330,"",1637761305128
activated,workbench,org.eclipse.ui.workbench,3.6.1.M20100826-1330,"",1637761343407
activated,view,org.eclipse.jdt.ui,3.6.1.r361_v20100825-0800,"org.eclipse.jdt.ui.PackageExplorer",1637761349202
deactivated,workbench,org.eclipse.ui.workbench,3.6.1.M20100826-1330,"",1637761354812
closed,editor,org.eclipse.jdt.ui,3.6.1.r361_v20100825-0800,"org.eclipse.jdt.ui.CompilationUnitEditor",1637761357582
activated,workbench,org.eclipse.ui.workbench,3.6.1.M20100826-1330,"",1637761357829
executed,command,org.eclipse.ui,3.6.1.M20100826-1330,"org.eclipse.ui.edit.delete",1637761357848
activated,editor,org.eclipse.jdt.ui,3.6.1.r361_v20100825-0800,"org.eclipse.jdt.ui.CompilationUnitEditor",1637761360056
activated,editor,org.eclipse.jdt.ui,3.6.1.r361_v20100825-0800,"org.eclipse.jdt.ui.CompilationUnitEditor",1637761362644
activated,editor,org.eclipse.jdt.ui,3.6.1.r361_v20100825-0800,"org.eclipse.jdt.ui.CompilationUnitEditor",1637761365599
activated,editor,org.eclipse.jdt.ui,3.6.1.r361_v20100825-0800,"org.eclipse.jdt.ui.CompilationUnitEditor",1637761368675
deactivated,workbench,org.eclipse.ui.workbench,3.6.1.M20100826-1330,"",1637761375607
activated,workbench,org.eclipse.ui.workbench,3.6.1.M20100826-1330,"",1637761377387
activated,perspective,org.eclipse.jdt.ui,3.6.1.r361_v20100825-0800,"org.eclipse.jdt.ui.JavaPerspective",1637761378006
executed,command,org.eclipse.ui,3.6.1.M20100826-1330,"org.eclipse.ui.window.resetPerspective",1637761379091
activated,view,org.eclipse.jdt.ui,3.6.1.r361_v20100825-0800,"org.eclipse.jdt.ui.PackageExplorer",1637761382710
deactivated,workbench,org.eclipse.ui.workbench,3.6.1.M20100826-1330,"",1637761392625
deactivated,workbench,org.eclipse.ui.workbench,3.6.1.M20100826-1330,"",1637762793935
activated,workbench,org.eclipse.ui.workbench,3.6.1.M20100826-1330,"",1637762794309
deactivated,workbench,org.eclipse.ui.workbench,3.6.1.M20100826-1330,"",1637762796291
activated,workbench,org.eclipse.ui.workbench,3.6.1.M20100826-1330,"",1637762798225
closed,workbench,org.eclipse.ui.workbench,3.6.1.M20100826-1330,"",1637762798646
stopped,bundle,org.eclipse.mylyn.ide.ant,3.4.0.v20100608-0100-e3x,"org.eclipse.mylyn.ide.ant",1637762799379
stopped,bundle,org.eclipse.ant.ui,3.5.0.v20100427,"org.eclipse.ant.ui",1637762799379
stopped,bundle,org.eclipse.ant.launching,1.0.0.v20100427,"org.eclipse.ant.launching",1637762799411
stopped,bundle,org.eclipse.compare.win32,1.0.100.I20100505-1245,"org.eclipse.compare.win32",1637762799457
stopped,bundle,org.eclipse.equinox.p2.ui.sdk,1.0.100.v20100513,"org.eclipse.equinox.p2.ui.sdk",1637762799473
stopped,bundle,org.eclipse.mylyn.java.tasks,3.4.0.v20100608-0100-e3x,"org.eclipse.mylyn.java.tasks",1637762799473
stopped,bundle,org.eclipse.mylyn.java.ui,3.4.0.v20100608-0100-e3x,"org.eclipse.mylyn.java.ui",1637762799473
stopped,bundle,org.eclipse.jdt.junit,3.6.1.r361_v20100825-0800,"org.eclipse.jdt.junit",1637762799473
stopped,bundle,org.eclipse.jdt.apt.ui,3.3.300.v20100513-0845,"org.eclipse.jdt.apt.ui",1637762799489
stopped,bundle,org.eclipse.jdt.debug.ui,3.5.0.v20100602-0830,"org.eclipse.jdt.debug.ui",1637762799489
stopped,bundle,org.eclipse.jdt.ui,3.6.1.r361_v20100825-0800,"org.eclipse.jdt.ui",1637762799489
stopped,bundle,org.eclipse.wst.dtd.ui,1.0.500.v201004290328,"org.eclipse.wst.dtd.ui",1637762799504
